%YAML 1.1
%TAG !u! tag:unity3d.com,2011:
--- !u!78 &1
TagManager:
  serializedVersion: 2
  tags:
  - Canvas
  - Panel
  - Slots
  - DraggingItem
  - EventSystem
  - Slot
  - Item
  - ItemIcon
  - MainInventory
  - Tooltip
  - EquipmentSystem
  - Rifle
  - GunImage
  - AfroZombie
  - FatZombie
  - 1stBottom
  - SecondBottom
  - ThirdBottom
  - Muzzle
  - BaldZombie
  - BeardedZombie
  - CuteZombie
  - NiceZombie
  - StylishZombie
  - round_carpet_geo
  layers:
  - Default
  - TransparentFX
  - Ignore Raycast
  - 
  - Water
  - UI
  - 
  - 
  - Floor
  - Shootable
  - 1st
  - 2nd
  - 3rd
  - outstruct
  - char
  - enterstair
  - trash
  - Minimap
  - 
  - 
  - 
  - 
  - 
  - 
  - 
  - 
  - 
  - 
  - 
  - 
  - 
  - 
  m_SortingLayers:
  - name: Default
    uniqueID: 0
    locked: 0
